SystemC_Assignment1/SystemC_Assignment1/STWave.vcd
$date
     Sep 12, 2019       11:14:26
$end

$version
 SystemC 2.3.3-Accellera --- Aug 29 2019 08:54:14
$end

$timescale
     1 ns
$end

$scope module SystemC $end
$var wire    1  aaaaa  clock       $end
$var wire    1  aaaab  ready       $end
$var wire    1  aaaac  valid       $end
$var wire   16  aaaad  data [15:0]  $end
$upscope $end
$enddefinitions  $end

$comment
All initial values are dumped below at time 0 sec = 0 timescale units.
$end

$dumpvars
1aaaaa
1aaaab
0aaaac
b0 aaaad
$end

#10
0aaaaa
1aaaac

#20
1aaaaa
0aaaab

#30
0aaaaa
0aaaac

#40
1aaaaa

#50
0aaaaa

#60
1aaaaa

#70
0aaaaa
1aaaab

#80
1aaaaa
1aaaac
b1011100110001 aaaad

#90
0aaaaa
0aaaab

#100
1aaaaa
0aaaac

#110
0aaaaa

#120
1aaaaa

#130
0aaaaa

#140
1aaaaa
1aaaab

#150
0aaaaa
1aaaac
b10010000110011 aaaad

#160
1aaaaa
0aaaab

#170
0aaaaa
0aaaac

#180
1aaaaa

#190
0aaaaa

#200
1aaaaa

#210
0aaaaa
1aaaab

#220
1aaaaa
1aaaac
b10000111001010 aaaad

#230
0aaaaa
0aaaab

#240
1aaaaa
0aaaac

#250
0aaaaa

#260
1aaaaa

#270
0aaaaa

#280
1aaaaa
1aaaab

#290
0aaaaa
1aaaac
b1001000110101 aaaad

#300
1aaaaa
0aaaab

#310
0aaaaa
0aaaac

#320
1aaaaa

#330
0aaaaa

#340
1aaaaa

#350
0aaaaa
1aaaab

#360
1aaaaa
1aaaac
b1111111000011010 aaaad

#370
0aaaaa
0aaaab

#380
1aaaaa
0aaaac

#390
0aaaaa

#400
1aaaaa

#410
0aaaaa

#420
1aaaaa
1aaaab

#430
0aaaaa
1aaaac
b1111000001001010 aaaad

#440
1aaaaa
0aaaab

#450
0aaaaa
0aaaac

#460
1aaaaa

#470
0aaaaa

#480
1aaaaa

#490
0aaaaa
1aaaab

#500
1aaaaa
1aaaac
b1111000010000001 aaaad

#510
0aaaaa
0aaaab

#520
1aaaaa
0aaaac

#530
0aaaaa

#540
1aaaaa

#550
0aaaaa

#560
1aaaaa
1aaaab

#570
0aaaaa
1aaaac
b1111111110011111 aaaad

#580
1aaaaa
0aaaab

#590
0aaaaa
0aaaac

#600
1aaaaa

#610
0aaaaa

#620
1aaaaa

#630
0aaaaa
1aaaab

#640
1aaaaa
1aaaac
b1011100111011 aaaad

#650
0aaaaa
0aaaab

#660
1aaaaa
0aaaac

#670
0aaaaa

#680
1aaaaa

#690
0aaaaa

#700
1aaaaa
1aaaab

#710
0aaaaa
1aaaac
b10110011000001 aaaad

#720
1aaaaa
0aaaab

#730
0aaaaa
0aaaac

#740
1aaaaa

#750
0aaaaa

#760
1aaaaa

#770
0aaaaa
1aaaab

#780
1aaaaa
1aaaac
b11011010010100 aaaad

#790
0aaaaa
0aaaab

#800
1aaaaa
0aaaac

#810
0aaaaa

#820
1aaaaa

#830
0aaaaa

#840
1aaaaa
1aaaab

#850
0aaaaa
1aaaac
b11000010111010 aaaad

#860
1aaaaa
0aaaab

#870
0aaaaa
0aaaac

#880
1aaaaa

#890
0aaaaa

#900
1aaaaa

#910
0aaaaa
1aaaab

#920
1aaaaa
1aaaac
b1111011001011 aaaad

#930
0aaaaa
0aaaab

#940
1aaaaa
0aaaac

#950
0aaaaa

#960
1aaaaa

#970
0aaaaa

#980
1aaaaa
1aaaab

#990
0aaaaa
1aaaac
b101000110001 aaaad

#1000
1aaaaa
0aaaab

#1010
0aaaaa
0aaaac

#1020
1aaaaa

#1030
0aaaaa

#1040
1aaaaa

#1050
0aaaaa
1aaaab

#1060
1aaaaa
1aaaac
b1111110110010011 aaaad

#1070
0aaaaa
0aaaab

#1080
1aaaaa
0aaaac

#1090
0aaaaa

#1100
1aaaaa

#1110
0aaaaa

#1120
1aaaaa
1aaaab

#1130
0aaaaa
1aaaac
b1111111110100010 aaaad

#1140
1aaaaa
0aaaab

#1150
0aaaaa
0aaaac

#1160
1aaaaa

#1170
0aaaaa

#1180
1aaaaa

#1190
0aaaaa
1aaaab

#1200
1aaaaa
1aaaac
b111111011100 aaaad

#1210
0aaaaa
0aaaab

#1220
1aaaaa
0aaaac

#1230
0aaaaa

#1240
1aaaaa

#1250
0aaaaa

#1260
1aaaaa
1aaaab

#1270
0aaaaa
1aaaac
b10011011001011 aaaad

#1280
1aaaaa
0aaaab

#1290
0aaaaa
0aaaac

#1300
1aaaaa

#1310
0aaaaa

#1320
1aaaaa

#1330
0aaaaa
1aaaab

#1340
1aaaaa
1aaaac
b11100110011111 aaaad

#1350
0aaaaa
0aaaab

#1360
1aaaaa
0aaaac

#1370
0aaaaa

#1380
1aaaaa

#1390
0aaaaa

#1400
1aaaaa
1aaaab

#1410
0aaaaa
1aaaac
b11111101110110 aaaad

#1420
1aaaaa
0aaaab

#1430
0aaaaa
0aaaac

#1440
1aaaaa

#1450
0aaaaa

#1460
1aaaaa

#1470
0aaaaa
1aaaab

#1480
1aaaaa
1aaaac
b11010110101100 aaaad

#1490
0aaaaa
0aaaab

#1500
1aaaaa
0aaaac

#1510
0aaaaa

#1520
1aaaaa

#1530
0aaaaa

#1540
1aaaaa
1aaaab

#1550
0aaaaa
1aaaac
b10000100100011 aaaad

#1560
1aaaaa
0aaaab

#1570
0aaaaa
0aaaac

#1580
1aaaaa

#1590
0aaaaa

#1600
1aaaaa

#1610
0aaaaa
1aaaab

#1620
1aaaaa
1aaaac
b101111100010 aaaad

#1630
0aaaaa
0aaaab

#1640
1aaaaa
0aaaac

#1650
0aaaaa

#1660
1aaaaa

#1670
0aaaaa

#1680
1aaaaa
1aaaab

#1690
0aaaaa
1aaaac
b110111 aaaad

#1700
1aaaaa
0aaaab

#1710
0aaaaa
0aaaac

#1720
1aaaaa

#1730
0aaaaa

#1740
1aaaaa

#1750
0aaaaa
1aaaab

#1760
1aaaaa
1aaaac
b1110110010 aaaad

#1770
0aaaaa
0aaaab

#1780
1aaaaa
0aaaac

#1790
0aaaaa

#1800
1aaaaa

#1810
0aaaaa

#1820
1aaaaa
1aaaab

#1830
0aaaaa
1aaaac
b1010001110000 aaaad

#1840
1aaaaa
0aaaab

#1850
0aaaaa
0aaaac

#1860
1aaaaa

#1870
0aaaaa

#1880
1aaaaa

#1890
0aaaaa
1aaaab

#1900
1aaaaa
1aaaac
b10101000001001 aaaad

#1910
0aaaaa
0aaaab

#1920
1aaaaa
0aaaac

#1930
0aaaaa

#1940
1aaaaa

#1950
0aaaaa

#1960
1aaaaa
1aaaab

#1970
0aaaaa
1aaaac
b11100110100100 aaaad

#1980
1aaaaa
0aaaab

#1990
0aaaaa
0aaaac

#2000
1aaaaa

#2010
0aaaaa

#2020
1aaaaa

#2030
0aaaaa
1aaaab

#2040
1aaaaa
1aaaac
b11101100111111 aaaad

#2050
0aaaaa
0aaaab

#2060
1aaaaa
0aaaac

#2070
0aaaaa

#2080
1aaaaa

#2090
0aaaaa

#2100
1aaaaa
1aaaab

#2110
0aaaaa
1aaaac
b10110110010110 aaaad

#2120
1aaaaa
0aaaab

#2130
0aaaaa
0aaaac

#2140
1aaaaa

#2150
0aaaaa

#2160
1aaaaa

#2170
0aaaaa
1aaaab

#2180
1aaaaa
1aaaac
b1011011000000 aaaad

#2190
0aaaaa
0aaaab

#2200
1aaaaa
0aaaac

#2210
0aaaaa

#2220
1aaaaa

#2230
0aaaaa

#2240
1aaaaa
1aaaab

#2250
0aaaaa
1aaaac
b100111001 aaaad

#2260
1aaaaa
0aaaab

#2270
0aaaaa
0aaaac

#2280
1aaaaa

#2290
0aaaaa

#2300
1aaaaa

#2310
0aaaaa
1aaaab

#2320
1aaaaa
1aaaac
b1111011011001100 aaaad

#2330
0aaaaa
0aaaab

#2340
1aaaaa
0aaaac

#2350
0aaaaa

#2360
1aaaaa

#2370
0aaaaa

#2380
1aaaaa
1aaaab

#2390
0aaaaa
1aaaac
b1111101111001010 aaaad

#2400
1aaaaa
0aaaab

#2410
0aaaaa
0aaaac

#2420
1aaaaa

#2430
0aaaaa

#2440
1aaaaa

#2450
0aaaaa
1aaaab

#2460
1aaaaa
1aaaac
b110011111011 aaaad

#2470
0aaaaa
0aaaab

#2480
1aaaaa
0aaaac

#2490
0aaaaa

#2500
1aaaaa

#2510
0aaaaa

#2520
1aaaaa
1aaaab

#2530
0aaaaa
1aaaac
b10000100101000 aaaad

#2540
1aaaaa
0aaaab

#2550
0aaaaa
0aaaac

#2560
1aaaaa

#2570
0aaaaa

#2580
1aaaaa

#2590
0aaaaa
1aaaab

#2600
1aaaaa
1aaaac
b10110110011100 aaaad

#2610
0aaaaa
0aaaab

#2620
1aaaaa
0aaaac

#2630
0aaaaa

#2640
1aaaaa

#2650
0aaaaa

#2660
1aaaaa
1aaaab

#2670
0aaaaa
1aaaac
b10101101010111 aaaad

#2680
1aaaaa
0aaaab

#2690
0aaaaa
0aaaac

#2700
1aaaaa

#2710
0aaaaa

#2720
1aaaaa

#2730
0aaaaa
1aaaab

#2740
1aaaaa
1aaaac
b1101001111001 aaaad

#2750
0aaaaa
0aaaab

#2760
1aaaaa
0aaaac

#2770
0aaaaa

#2780
1aaaaa

#2790
0aaaaa

#2800
1aaaaa
1aaaab

#2810
0aaaaa
1aaaac
b1000110100 aaaad

#2820
1aaaaa
0aaaab

#2830
0aaaaa
0aaaac

#2840
1aaaaa

#2850
0aaaaa

#2860
1aaaaa

#2870
0aaaaa
1aaaab

#2880
1aaaaa
1aaaac
b1110110101001100 aaaad

#2890
0aaaaa
0aaaab

#2900
1aaaaa
0aaaac

#2910
0aaaaa

#2920
1aaaaa

#2930
0aaaaa

#2940
1aaaaa
1aaaab

#2950
0aaaaa
1aaaac
b1110010011011101 aaaad

#2960
1aaaaa
0aaaab

#2970
0aaaaa
0aaaac

#2980
1aaaaa

#2990
0aaaaa

#3000
1aaaaa

#3010
0aaaaa
1aaaab

#3020
1aaaaa
1aaaac
b1110101111101100 aaaad

#3030
0aaaaa
0aaaab

#3040
1aaaaa
0aaaac

#3050
0aaaaa

#3060
1aaaaa

#3070
0aaaaa

#3080
1aaaaa
1aaaab

#3090
0aaaaa
1aaaac
b1111110111110100 aaaad

#3100
1aaaaa
0aaaab

#3110
0aaaaa
0aaaac

#3120
1aaaaa

#3130
0aaaaa

#3140
1aaaaa

#3150
0aaaaa
1aaaab

#3160
1aaaaa
1aaaac
b1000100010110 aaaad

#3170
0aaaaa
0aaaab

#3180
1aaaaa
0aaaac

#3190
0aaaaa

#3200
1aaaaa

#3210
0aaaaa

#3220
1aaaaa
1aaaab

#3230
0aaaaa
1aaaac
b1101011101101 aaaad

#3240
1aaaaa
0aaaab

#3250
0aaaaa
0aaaac

#3260
1aaaaa

#3270
0aaaaa

#3280
1aaaaa

#3290
0aaaaa
1aaaab

#3300
1aaaaa
1aaaac
b1010110010111 aaaad

#3310
0aaaaa
0aaaab

#3320
1aaaaa
0aaaac

#3330
0aaaaa

#3340
1aaaaa

#3350
0aaaaa

#3360
1aaaaa
1aaaab

#3370
0aaaaa
1aaaac
b1010011000 aaaad

#3380
1aaaaa
0aaaab

#3390
0aaaaa
0aaaac

#3400
1aaaaa

#3410
0aaaaa

#3420
1aaaaa

#3430
0aaaaa
1aaaab

#3440
1aaaaa
1aaaac
b1110101000011101 aaaad

#3450
0aaaaa
0aaaab

#3460
1aaaaa
0aaaac

#3470
0aaaaa

#3480
1aaaaa

#3490
0aaaaa

#3500
1aaaaa
1aaaab

#3510
0aaaaa
1aaaac
b1101011100000010 aaaad

#3520
1aaaaa
0aaaab

#3530
0aaaaa
0aaaac

#3540
1aaaaa

#3550
0aaaaa

#3560
1aaaaa

#3570
0aaaaa
1aaaab

#3580
1aaaaa
1aaaac
b1101000110001111 aaaad

#3590
0aaaaa
0aaaab

#3600
1aaaaa
0aaaac

#3610
0aaaaa

#3620
1aaaaa

#3630
0aaaaa

#3640
1aaaaa
1aaaab

#3650
0aaaaa
1aaaac
b1101101101101101 aaaad

#3660
1aaaaa
0aaaab

#3670
0aaaaa
0aaaac

#3680
1aaaaa

#3690
0aaaaa

#3700
1aaaaa

#3710
0aaaaa
1aaaab

#3720
1aaaaa
1aaaac
b1110111011011110 aaaad

#3730
0aaaaa
0aaaab

#3740
1aaaaa
0aaaac

#3750
0aaaaa

#3760
1aaaaa

#3770
0aaaaa

#3780
1aaaaa
1aaaab

#3790
0aaaaa
1aaaac
b110000100 aaaad

#3800
1aaaaa
0aaaab

#3810
0aaaaa
0aaaac

#3820
1aaaaa

#3830
0aaaaa

#3840
1aaaaa

#3850
0aaaaa
1aaaab

#3860
1aaaaa
1aaaac
b100101110010 aaaad

#3870
0aaaaa
0aaaab

#3880
1aaaaa
0aaaac

#3890
0aaaaa

#3900
1aaaaa

#3910
0aaaaa

#3920
1aaaaa
1aaaab

#3930
0aaaaa
1aaaac
b111111101 aaaad

#3940
1aaaaa
0aaaab

#3950
0aaaaa
0aaaac

#3960
1aaaaa

#3970
0aaaaa

#3980
1aaaaa

#3990
0aaaaa
1aaaab

#4000
1aaaaa
1aaaac
b1110111000000100 aaaad

#4010
0aaaaa
0aaaab

#4020
1aaaaa
0aaaac

#4030
0aaaaa

#4040
1aaaaa

#4050
0aaaaa

#4060
1aaaaa
1aaaab

#4070
0aaaaa
1aaaac
b1101011010001100 aaaad

#4080
1aaaaa
0aaaab

#4090
0aaaaa
0aaaac

#4100
1aaaaa

#4110
0aaaaa

#4120
1aaaaa

#4130
0aaaaa
1aaaab

#4140
1aaaaa
1aaaac
b1100011001011101 aaaad

#4150
0aaaaa
0aaaab

#4160
1aaaaa
0aaaac

#4170
0aaaaa

#4180
1aaaaa

#4190
0aaaaa

#4200
1aaaaa
1aaaab

#4210
0aaaaa
1aaaac
b1100010011000100 aaaad

#4220
1aaaaa
0aaaab

#4230
0aaaaa
0aaaac

#4240
1aaaaa

#4250
0aaaaa

#4260
1aaaaa

#4270
0aaaaa
1aaaab

#4280
1aaaaa
1aaaac
b1101001000001001 aaaad

#4290
0aaaaa
0aaaab

#4300
1aaaaa
0aaaac

#4310
0aaaaa

#4320
1aaaaa

#4330
0aaaaa

#4340
1aaaaa
1aaaab

#4350
0aaaaa
1aaaac
b1110011101001001 aaaad

#4360
1aaaaa
0aaaab

#4370
0aaaaa
0aaaac

#4380
1aaaaa

#4390
0aaaaa

#4400
1aaaaa

#4410
0aaaaa
1aaaab

#4420
1aaaaa
1aaaac
b1111100111010011 aaaad

#4430
0aaaaa
0aaaab

#4440
1aaaaa
0aaaac

#4450
0aaaaa

#4460
1aaaaa

#4470
0aaaaa

#4480
1aaaaa
1aaaab

#4490
0aaaaa
1aaaac
b1011001 aaaad

#4500
1aaaaa
0aaaab

#4510
0aaaaa
0aaaac

#4520
1aaaaa

#4530
0aaaaa

#4540
1aaaaa

#4550
0aaaaa
1aaaab

#4560
1aaaaa
1aaaac
b1111011101111101 aaaad

#4570
0aaaaa
0aaaab

#4580
1aaaaa
0aaaac

#4590
0aaaaa

#4600
1aaaaa

#4610
0aaaaa

#4620
1aaaaa
1aaaab

#4630
0aaaaa
1aaaac
b1110001101101011 aaaad

#4640
1aaaaa
0aaaab

#4650
0aaaaa
0aaaac

#4660
1aaaaa

#4670
0aaaaa

#4680
1aaaaa

#4690
0aaaaa
1aaaab

#4700
1aaaaa
1aaaac
b1100110111011001 aaaad

#4710
0aaaaa
0aaaab

#4720
1aaaaa
0aaaac

#4730
0aaaaa

#4740
1aaaaa

#4750
0aaaaa

#4760
1aaaaa
1aaaab

#4770
0aaaaa
1aaaac
b1100000101001101 aaaad

#4780
1aaaaa
0aaaab

#4790
0aaaaa
0aaaac

#4800
1aaaaa

#4810
0aaaaa

#4820
1aaaaa

#4830
0aaaaa
1aaaab

#4840
1aaaaa
1aaaac
b1100001111111011 aaaad

#4850
0aaaaa
0aaaab

#4860
1aaaaa
0aaaac

#4870
0aaaaa

#4880
1aaaaa

#4890
0aaaaa

#4900
1aaaaa
1aaaab

#4910
0aaaaa
1aaaac
b1101010011000101 aaaad

#4920
1aaaaa
0aaaab

#4930
0aaaaa
0aaaac

#4940
1aaaaa

#4950
0aaaaa

#4960
1aaaaa

#4970
0aaaaa
1aaaab

#4980
1aaaaa
1aaaac
b1110101111000011 aaaad

#4990
0aaaaa
0aaaab

#5000
1aaaaa
0aaaac

#5010
0aaaaa

#5020
1aaaaa

#5030
0aaaaa

#5040
1aaaaa
1aaaab

#5050
0aaaaa
1aaaac
b1111111000011011 aaaad

#5060
1aaaaa
0aaaab

#5070
0aaaaa
0aaaac

#5080
1aaaaa

#5090
0aaaaa

#5100
1aaaaa

#5110
0aaaaa
1aaaab

#5120
1aaaaa
1aaaac
b1101001001 aaaad

#5130
0aaaaa
0aaaab

#5140
1aaaaa
0aaaac

#5150
0aaaaa

#5160
1aaaaa

#5170
0aaaaa

#5180
1aaaaa
1aaaab

#5190
0aaaaa
1aaaac
b1111100101000101 aaaad

#5200
1aaaaa
0aaaab

#5210
0aaaaa
0aaaac

#5220
1aaaaa

#5230
0aaaaa

#5240
1aaaaa

#5250
0aaaaa
1aaaab

#5260
1aaaaa
1aaaac
b1110010101111000 aaaad

#5270
0aaaaa
0aaaab

#5280
1aaaaa
0aaaac

#5290
0aaaaa

#5300
1aaaaa

#5310
0aaaaa

#5320
1aaaaa
1aaaab

#5330
0aaaaa
1aaaac
b1101001000100010 aaaad

#5340
1aaaaa
0aaaab

#5350
0aaaaa
0aaaac

#5360
1aaaaa

#5370
0aaaaa

#5380
1aaaaa

#5390
0aaaaa
1aaaab

#5400
1aaaaa
1aaaac
b1100100101011000 aaaad

#5410
0aaaaa
0aaaab

#5420
1aaaaa
0aaaac

#5430
0aaaaa

#5440
1aaaaa

#5450
0aaaaa

#5460
1aaaaa
1aaaab

#5470
0aaaaa
1aaaac
b1101000000011101 aaaad

#5480
1aaaaa
0aaaab

#5490
0aaaaa
0aaaac

#5500
1aaaaa

#5510
0aaaaa

#5520
1aaaaa

#5530
0aaaaa
1aaaab

#5540
1aaaaa
1aaaac
b1110001111110001 aaaad

#5550
0aaaaa
0aaaab

#5560
1aaaaa
0aaaac

#5570
0aaaaa

#5580
1aaaaa

#5590
0aaaaa

#5600
1aaaaa
1aaaab

#5610
0aaaaa
1aaaac
b1111110000001000 aaaad

#5620
1aaaaa
0aaaab

#5630
0aaaaa
0aaaac

#5640
1aaaaa

#5650
0aaaaa

#5660
1aaaaa

#5670
0aaaaa
1aaaab

#5680
1aaaaa
1aaaac
b110110001110 aaaad

#5690
0aaaaa
0aaaab

#5700
1aaaaa
0aaaac

#5710
0aaaaa

#5720
1aaaaa

#5730
0aaaaa

#5740
1aaaaa
1aaaab

#5750
0aaaaa
1aaaac
b1000011101110 aaaad

#5760
1aaaaa
0aaaab

#5770
0aaaaa
0aaaac

#5780
1aaaaa

#5790
0aaaaa

#5800
1aaaaa

#5810
0aaaaa
1aaaab

#5820
1aaaaa
1aaaac
b10101111101 aaaad

#5830
0aaaaa
0aaaab

#5840
1aaaaa
0aaaac

#5850
0aaaaa

#5860
1aaaaa

#5870
0aaaaa

#5880
1aaaaa
1aaaab

#5890
0aaaaa
1aaaac
b1111000111001101 aaaad

#5900
1aaaaa
0aaaab

#5910
0aaaaa
0aaaac

#5920
1aaaaa

#5930
0aaaaa

#5940
1aaaaa

#5950
0aaaaa
1aaaab

#5960
1aaaaa
1aaaac
b1110000001111011 aaaad

#5970
0aaaaa
0aaaab

#5980
1aaaaa
0aaaac

#5990
0aaaaa

#6000
1aaaaa

#6010
0aaaaa

#6020
1aaaaa
1aaaab

#6030
0aaaaa
1aaaac
b1101101100000010 aaaad

#6040
1aaaaa
0aaaab

#6050
0aaaaa
0aaaac

#6060
1aaaaa

#6070
0aaaaa

#6080
1aaaaa

#6090
0aaaaa
1aaaab

#6100
1aaaaa
1aaaac
b1110010100100001 aaaad

#6110
0aaaaa
0aaaab

#6120
1aaaaa
0aaaac

#6130
0aaaaa

#6140
1aaaaa

#6150
0aaaaa

#6160
1aaaaa
1aaaab

#6170
0aaaaa
1aaaac
b1111101100000001 aaaad

#6180
1aaaaa
0aaaab

#6190
0aaaaa
0aaaac

#6200
1aaaaa

#6210
0aaaaa

#6220
1aaaaa

#6230
0aaaaa
1aaaab

#6240
1aaaaa
1aaaac
b1001100010110 aaaad

#6250
0aaaaa
0aaaab

#6260
1aaaaa
0aaaac

#6270
0aaaaa

#6280
1aaaaa

#6290
0aaaaa

#6300
1aaaaa
1aaaab

#6310
0aaaaa
1aaaac
b10001011000100 aaaad

#6320
1aaaaa
0aaaab

#6330
0aaaaa
0aaaac

#6340
1aaaaa

#6350
0aaaaa

#6360
1aaaaa

#6370
0aaaaa
1aaaab

#6380
1aaaaa
1aaaac
b10001110000001 aaaad

#6390
0aaaaa
0aaaab

#6400
1aaaaa
0aaaac

#6410
0aaaaa

#6420
1aaaaa

#6430
0aaaaa

#6440
1aaaaa
1aaaab

#6450
0aaaaa
1aaaac
b1011000000111 aaaad

#6460
1aaaaa
0aaaab

#6470
0aaaaa
0aaaac

#6480
1aaaaa

#6490
0aaaaa

#6500
1aaaaa

#6510
0aaaaa
1aaaab

#6520
1aaaaa
1aaaac
b111110100 aaaad

#6530
0aaaaa
0aaaab

#6540
1aaaaa
0aaaac

#6550
0aaaaa

#6560
1aaaaa

#6570
0aaaaa

#6580
1aaaaa
1aaaab

#6590
0aaaaa
1aaaac
b1111001000011000 aaaad

#6600
1aaaaa
0aaaab

#6610
0aaaaa
0aaaac

#6620
1aaaaa

#6630
0aaaaa

#6640
1aaaaa

#6650
0aaaaa
1aaaab

#6660
1aaaaa
1aaaac
b1110111100101111 aaaad

#6670
0aaaaa
0aaaab

#6680
1aaaaa
0aaaac

#6690
0aaaaa

#6700
1aaaaa

#6710
0aaaaa

#6720
1aaaaa
1aaaab

#6730
0aaaaa
1aaaac
b1111101110011111 aaaad

#6740
1aaaaa
0aaaab

#6750
0aaaaa
0aaaac

#6760
1aaaaa

#6770
0aaaaa

#6780
1aaaaa

#6790
0aaaaa
1aaaab

#6800
1aaaaa
1aaaac
b1001001010000 aaaad

#6810
0aaaaa
0aaaab

#6820
1aaaaa
0aaaac

#6830
0aaaaa

#6840
1aaaaa

#6850
0aaaaa

#6860
1aaaaa
1aaaab

#6870
0aaaaa
1aaaac
b10100100100011 aaaad

#6880
1aaaaa
0aaaab

#6890
0aaaaa
0aaaac

#6900
1aaaaa

#6910
0aaaaa

#6920
1aaaaa

#6930
0aaaaa
1aaaab

#6940
1aaaaa
1aaaac
b11010111011001 aaaad

#6950
0aaaaa
0aaaab

#6960
1aaaaa
0aaaac

#6970
0aaaaa

#6980
1aaaaa

#6990
0aaaaa

#7000
1aaaaa
1aaaab

#7010
0aaaaa
1aaaac
b11001100010101 aaaad

#7020
1aaaaa
0aaaab

#7030
0aaaaa
0aaaac

#7040
1aaaaa

#7050
0aaaaa

#7060
1aaaaa

#7070
0aaaaa
1aaaab

#7080
1aaaaa
1aaaac
b10001011110010 aaaad

#7090
0aaaaa
0aaaab

#7100
1aaaaa
0aaaac

#7110
0aaaaa

#7120
1aaaaa

#7130
0aaaaa

#7140
1aaaaa
1aaaab

#7150
0aaaaa
1aaaac
b110111111101 aaaad

#7160
1aaaaa
0aaaab

#7170
0aaaaa
0aaaac

#7180
1aaaaa

#7190
0aaaaa

#7200
1aaaaa

#7210
0aaaaa
1aaaab

#7220
1aaaaa
1aaaac
b1111111100001100 aaaad

#7230
0aaaaa
0aaaab

#7240
1aaaaa
0aaaac

#7250
0aaaaa

#7260
1aaaaa

#7270
0aaaaa

#7280
1aaaaa
1aaaab

#7290
0aaaaa
1aaaac
b1111110111110101 aaaad

#7300
1aaaaa
0aaaab

#7310
0aaaaa
0aaaac

#7320
1aaaaa

#7330
0aaaaa

#7340
1aaaaa

#7350
0aaaaa
1aaaab

#7360
1aaaaa
1aaaac
b101111000010 aaaad

#7370
0aaaaa
0aaaab

#7380
1aaaaa
0aaaac

#7390
0aaaaa

#7400
1aaaaa

#7410
0aaaaa

#7420
1aaaaa
1aaaab

#7430
0aaaaa
1aaaac
b10001000101110 aaaad

#7440
1aaaaa
0aaaab

#7450
0aaaaa
0aaaac

#7460
1aaaaa

#7470
0aaaaa

#7480
1aaaaa

#7490
0aaaaa
1aaaab

#7500
1aaaaa
1aaaac
b11011010101101 aaaad

#7510
0aaaaa
0aaaab

#7520
1aaaaa
0aaaac

#7530
0aaaaa

#7540
1aaaaa

#7550
0aaaaa

#7560
1aaaaa
1aaaab

#7570
0aaaaa
1aaaac
b11111110010010 aaaad

#7580
1aaaaa
0aaaab

#7590
0aaaaa
0aaaac

#7600
1aaaaa

#7610
0aaaaa

#7620
1aaaaa

#7630
0aaaaa
1aaaab

#7640
1aaaaa
1aaaac
b11100010111111 aaaad

#7650
0aaaaa
0aaaab

#7660
1aaaaa
0aaaac

#7670
0aaaaa

#7680
1aaaaa

#7690
0aaaaa

#7700
1aaaaa
1aaaab

#7710
0aaaaa
1aaaac
b10010110101001 aaaad

#7720
1aaaaa
0aaaab

#7730
0aaaaa
0aaaac

#7740
1aaaaa

#7750
0aaaaa

#7760
1aaaaa

#7770
0aaaaa
1aaaab

#7780
1aaaaa
1aaaac
b111110101000 aaaad

#7790
0aaaaa
0aaaab

#7800
1aaaaa
0aaaac

#7810
0aaaaa

#7820
1aaaaa

#7830
0aaaaa

#7840
1aaaaa
1aaaab

#7850
0aaaaa
1aaaac
b101101010 aaaad

#7860
1aaaaa
0aaaab

#7870
0aaaaa
0aaaac

#7880
1aaaaa

#7890
0aaaaa

#7900
1aaaaa

#7910
0aaaaa
1aaaab

#7920
1aaaaa
1aaaac
b111000100 aaaad

#7930
0aaaaa
0aaaab

#7940
1aaaaa
0aaaac

#7950
0aaaaa

#7960
1aaaaa

#7970
0aaaaa

#7980
1aaaaa
1aaaab

#7990
0aaaaa
1aaaac
b1000001011110 aaaad

#8000
1aaaaa
0aaaab

#8010
0aaaaa
0aaaac

#8020
1aaaaa

#8030
0aaaaa

#8040
1aaaaa

#8050
0aaaaa
1aaaab

#8060
1aaaaa
1aaaac
b10010111011011 aaaad

#8070
0aaaaa
0aaaab

#8080
1aaaaa
0aaaac

#8090
0aaaaa

#8100
1aaaaa

#8110
0aaaaa

#8120
1aaaaa
1aaaab

#8130
0aaaaa
1aaaac
b11011101110111 aaaad

#8140
1aaaaa
0aaaab

#8150
0aaaaa
0aaaac

#8160
1aaaaa

#8170
0aaaaa

#8180
1aaaaa

#8190
0aaaaa
1aaaab

#8200
1aaaaa
1aaaac
b11110000111000 aaaad

#8210
0aaaaa
0aaaab

#8220
1aaaaa
0aaaac

#8230
0aaaaa

#8240
1aaaaa

#8250
0aaaaa

#8260
1aaaaa
1aaaab

#8270
0aaaaa
1aaaac
b11000101010111 aaaad

#8280
1aaaaa
0aaaab

#8290
0aaaaa
0aaaac

#8300
1aaaaa

#8310
0aaaaa

#8320
1aaaaa

#8330
0aaaaa
1aaaab

#8340
1aaaaa
1aaaac
b1101110010011 aaaad

#8350
0aaaaa
0aaaab

#8360
1aaaaa
0aaaac

#8370
0aaaaa

#8380
1aaaaa

#8390
0aaaaa

#8400
1aaaaa
1aaaab

#8410
0aaaaa
1aaaac
b10011100111 aaaad

#8420
1aaaaa
0aaaab

#8430
0aaaaa
0aaaac

#8440
1aaaaa

#8450
0aaaaa

#8460
1aaaaa

#8470
0aaaaa
1aaaab

#8480
1aaaaa
1aaaac
b1111011110101110 aaaad

#8490
0aaaaa
0aaaab

#8500
1aaaaa
0aaaac

#8510
0aaaaa

#8520
1aaaaa

#8530
0aaaaa

#8540
1aaaaa
1aaaab

#8550
0aaaaa
1aaaac
b1111100110011011 aaaad

#8560
1aaaaa
0aaaab

#8570
0aaaaa
0aaaac

#8580
1aaaaa

#8590
0aaaaa

#8600
1aaaaa

#8610
0aaaaa
1aaaab

#8620
1aaaaa
1aaaac
b100011110011 aaaad

#8630
0aaaaa
0aaaab

#8640
1aaaaa
0aaaac

#8650
0aaaaa

#8660
1aaaaa

#8670
0aaaaa

#8680
1aaaaa
1aaaab

#8690
0aaaaa
1aaaac
b1110101101011 aaaad

#8700
1aaaaa
0aaaab

#8710
0aaaaa
0aaaac

#8720
1aaaaa

#8730
0aaaaa

#8740
1aaaaa

#8750
0aaaaa
1aaaab

#8760
1aaaaa
1aaaac
b10110000101010 aaaad

#8770
0aaaaa
0aaaab

#8780
1aaaaa
0aaaac

#8790
0aaaaa

#8800
1aaaaa

#8810
0aaaaa

#8820
1aaaaa
1aaaab

#8830
0aaaaa
1aaaac
b10110100010100 aaaad

#8840
1aaaaa
0aaaab

#8850
0aaaaa
0aaaac

#8860
1aaaaa

#8870
0aaaaa

#8880
1aaaaa

#8890
0aaaaa
1aaaab

#8900
1aaaaa
1aaaac
b1111011000000 aaaad

#8910
0aaaaa
0aaaab

#8920
1aaaaa
0aaaac

#8930
0aaaaa

#8940
1aaaaa

#8950
0aaaaa

#8960
1aaaaa
1aaaab

#8970
0aaaaa
1aaaac
b11100100100 aaaad

#8980
1aaaaa
0aaaab

#8990
0aaaaa
0aaaac

#9000
1aaaaa

#9010
0aaaaa

#9020
1aaaaa

#9030
0aaaaa
1aaaab

#9040
1aaaaa
1aaaac
b1111000010110101 aaaad

#9050
0aaaaa
0aaaab

#9060
1aaaaa
0aaaac

#9070
0aaaaa

#9080
1aaaaa

#9090
0aaaaa

#9100
1aaaaa
1aaaab

#9110
0aaaaa
1aaaac
b1110010101001100 aaaad

#9120
1aaaaa
0aaaab

#9130
0aaaaa
0aaaac

#9140
1aaaaa

#9150
0aaaaa

#9160
1aaaaa

#9170
0aaaaa
1aaaab

